{
    "priority":100,
    "context": ["Task"],
    "identifier": "ftrack-connect-launch-unreal-engine",
    "applicationIdentifier":"unreal-engine_{variant}",
    "integrations": {
        "pipeline":[
            "ftrack-connect-pipeline", 
            "ftrack-connect-pipeline-qt", 
            "ftrack-connect-pipeline-definition", 
            "ftrack-connect-pipeline-unreal-engine"
        ]
    },
    "label": "Unreal Engine",
    "icon": "unreal-engine",
    "variant": "{version}",
    "search_path":{
        "windows": {
            "prefix":["C:\\", "Program Files.*", "Epic Games"],
            "expression":["UE_.+", "Engine", "Binaries", "Win64", "UE4Editor.exe"],
            "version_expression": "(?P<version>[\\d.]+[\\d.]+[\\d.])"
        },
        "darwin": {
            "prefix":["/", "Users", "Shared", "Epic Games"],
            "expression": ["UE_.+", "Engine", "Binaries", "Mac", "UE4Editor.app"],
            "version_expression": "(?P<version>[\\d.]+[\\d.]+[\\d.])"
        }
    }
 }
 